From College Dropout to Ye: Kanye West’s lyrical evolution.
…
a. Women referal Network

It might be interesting to analyze, for example, what words appear
together with words referring to women in Kanye’s lyrics:

# Filter the word co-occurrence network for selected target words and higher frequency
word_pairs %>%
  filter(
    item1 %in% c("girl", "bitch", "baby", "girls", "bitches"),  # Focus on selected gender-related or recurring terms
    n > 2  # Keep only word pairs that co-occur more than twice
  ) %>%
  arrange(desc(n))  # Sort by descending co-occurrence frequency

## # A tibble: 62 × 3
##    item1 item2       n
##    <chr> <chr>   <dbl>
##  1 girl  leave      36
##  2 girl  gotta      34
##  3 girl  head       32
##  4 girl  love       12
##  5 girls hot        11
##  6 girls drunk      11
##  7 girl  mistake    10
##  8 bitch bad         9
##  9 baby  outta       9
## 10 baby  lights      8
## # ℹ 52 more rows
…
# Compute co-occurrence counts of words within lines
word_pairs2 <- words_by_line2 %>%
  pairwise_count(item = word, feature = line_id, sort = TRUE)

# Focus on frequent co-occurrences involving self-referential terms
word_pairs2 %>%
  filter(
    item1 %in% c("i", "me", "my", "kanye"),  # Focus on words linked to identity
    n >= 10  # Only keep strong associations
  ) %>%
  arrange(desc(n))  # Sort by frequency

## # A tibble: 108 × 3
##    item1 item2     n
##    <chr> <chr> <dbl>
##  1 i     my      211
##  2 my    i       211
##  3 i     me      157
##  4 me    i       157
##  5 i     feel     95
##  6 i     love     67
##  7 i     gotta    65
##  8 me    my       62
##  9 my    me       62
## 10 i     yeah     57
## # ℹ 98 more rows
…
